[gd_scene load_steps=4 format=2]

[ext_resource path="res://Assets/Paddle.png" type="Texture" id=1]
[ext_resource path="res://player/player.gd" type="Script" id=2]

[sub_resource type="RectangleShape2D" id=1]
extents = Vector2( 15, 60.5 )

[node name="Player" type="KinematicBody2D"]
position = Vector2( 128, 352 )
script = ExtResource( 2 )

[node name="Sprite" type="Sprite" parent="."]
texture = ExtResource( 1 )

[node name="CollisionShape2D" type="CollisionShape2D" parent="."]
visible = false
position = Vector2( 0, 0.5 )
shape = SubResource( 1 )
